{"links":{"next":"https://api.alphaday.com/items/news/?page=2","previous":null},"total":90096,"results":[{"id":90511,"hash":"0ff69220443e39049fb3316c224026fc","title":"Music industry eyes DeeStream presale after Ethereum and Avalanche whales join","url":"https://crypto.news/music-industry-eyes-deestream-presale-after-ethereum-and-avalanche-whales-join/","image":"https://crypto.news/app/uploads/2023/11/crypto-news-music-instrument08.webp","author":null,"published_at":"2024-02-19T00:05:00Z","source":{"name":"Crypto.news","slug":"crypto_news_news","icon":"https://s3.eu-west-1.amazonaws.com/production-alphaday.com/media/icons/sources/crypto-news.png"},"is_bookmarked":false,"sentiment_score":"0.10"},{"id":90510,"hash":"9bb4f48a31db1e6b5a43da93e3202fa5","title":"DeeStream draws Solana and Ethereum investment after market surge","url":"https://crypto.news/deestream-draws-solana-and-ethereum-investment-after-market-surge/","image":"https://crypto.news/app/uploads/2024/02/crypto-news-deestream-option03.webp","author":null,"published_at":"2024-02-18T23:30:00Z","source":{"name":"Crypto.news","slug":"crypto_news_news","icon":"https://s3.eu-west-1.amazonaws.com/production-alphaday.com/media/icons/sources/crypto-news.png"},"is_bookmarked":false,"sentiment_score":"0.09"},{"id":90508,"hash":"07a798f63e55dd134426d774703f64a9","title":"Ethereum and Binance Coin gains flow into Deestream as leap year boosts crypto","url":"https://crypto.news/ethereum-and-binance-coin-gains-flow-into-deestream-as-leap-year-boosts-crypto/","image":"https://crypto.news/app/uploads/2024/02/crypto-news-deestream-option08.webp","author":null,"published_at":"2024-02-18T23:00:00Z","source":{"name":"Crypto.news","slug":"crypto_news_news","icon":"https://s3.eu-west-1.amazonaws.com/production-alphaday.com/media/icons/sources/crypto-news.png"},"is_bookmarked":false,"sentiment_score":"0.25"},{"id":90507,"hash":"51dc9354386c253eb350878fc94d61fa","title":"FCA Sounds Alarm on Crypto Promotions: 450 Alerts Issued in 3 Months","url":"https://cryptopotato.com/fca-sounds-alarm-on-crypto-promotions-450-alerts-issued-in-3-months/","image":"https://cryptopotato.com/wp-content/uploads/2020/10/fca_uk_cover.jpg","author":null,"published_at":"2024-02-18T22:40:00Z","source":{"name":"CryptoPotato","slug":"cryptopotato_news","icon":"https://s3.eu-west-1.amazonaws.com/production-alphaday.com/media/icons/sources/cryptopotato_news.png"},"is_bookmarked":false,"sentiment_score":"-0.06"},{"id":90506,"hash":"2e29fc5ca021081a00ff70164a2d15a3","title":"DOGE, SHIB, and PEPE holders flock to Pushd presale","url":"https://crypto.news/doge-shib-and-pepe-holders-flock-to-pushd-presale/","image":"https://crypto.news/app/uploads/2023/10/crypto-news-Price-Rally-for-Apecoin-El-Hippo-and-PEPE03.webp","author":null,"published_at":"2024-02-18T22:00:00Z","source":{"name":"Crypto.news","slug":"crypto_news_news","icon":"https://s3.eu-west-1.amazonaws.com/production-alphaday.com/media/icons/sources/crypto-news.png"},"is_bookmarked":false,"sentiment_score":"0.29"},{"id":90505,"hash":"38ca453624639a2cb58a141bbe7a8aba","title":"Retail investors are easing back into crypto while VC funding rises for first time in 1.5 years","url":"https://cryptoslate.com/retail-investors-are-easing-back-into-crypto-while-vc-funding-rises-for-first-time-in-1-5-years/","image":"https://cryptoslate.com/wp-content/uploads/2024/02/bitcoin-retail.jpg","author":null,"published_at":"2024-02-18T20:43:00Z","source":{"name":"CryptoSlate","slug":"cryptoslate_news","icon":"https://s3.eu-west-1.amazonaws.com/production-alphaday.com/media/icons/sources/cryptoslate_news.jpg"},"is_bookmarked":false,"sentiment_score":"0.08"},{"id":90504,"hash":"6efb676f9e289103649ce1bcf249061c","title":"South Korean Crypto Exchanges Report Nearly 50% Surge in Suspicious Transactions in 2023","url":"https://cryptopotato.com/south-korean-crypto-exchanges-report-nearly-50-surge-in-suspicious-transactions-in-2023/","image":"https://cryptopotato.com/wp-content/uploads/2021/05/SouthKorea.png","author":null,"published_at":"2024-02-18T20:04:00Z","source":{"name":"CryptoPotato","slug":"cryptopotato_news","icon":"https://s3.eu-west-1.amazonaws.com/production-alphaday.com/media/icons/sources/cryptopotato_news.png"},"is_bookmarked":false,"sentiment_score":"0.10"},{"id":90503,"hash":"380cc90af7fa9c6320b82053fa6bc53c","title":"Analysts predict this new altcoin could grow same as Bonk","url":"https://crypto.news/analysts-predict-this-new-altcoin-could-grow-same-as-bonk/","image":"https://crypto.news/app/uploads/2023/09/crypto-news-Kangamoon04.webp","author":null,"published_at":"2024-02-18T20:00:00Z","source":{"name":"Crypto.news","slug":"crypto_news_news","icon":"https://s3.eu-west-1.amazonaws.com/production-alphaday.com/media/icons/sources/crypto-news.png"},"is_bookmarked":false,"sentiment_score":"0.14"},{"id":90502,"hash":"dc327570dee432aaaaabd4e9cc70d3f7","title":"Bulls profit as Bitcoin hits $50k while Cardano whales eye new meme coin","url":"https://crypto.news/bulls-profit-as-bitcoin-hits-50k-while-cardano-whales-eye-new-meme-coin/","image":"https://crypto.news/app/uploads/2024/02/crypto-news-bull-option01.webp","author":null,"published_at":"2024-02-18T19:00:00Z","source":{"name":"Crypto.news","slug":"crypto_news_news","icon":"https://s3.eu-west-1.amazonaws.com/production-alphaday.com/media/icons/sources/crypto-news.png"},"is_bookmarked":false,"sentiment_score":"-0.05"},{"id":90501,"hash":"243f628bf45e79d5ab6c705414c754cc","title":"User-centric Farcaster hit by bot wave: report","url":"https://crypto.news/user-centric-farcaster-reportedly-hit-by-bot-wave/","image":"https://crypto.news/app/uploads/2023/11/crypto-news-People-are-looking-at-blockchain-system-blurry-modern-conference-background-blue-and-white-colors-3d-style02.webp","author":null,"published_at":"2024-02-18T18:15:00Z","source":{"name":"Crypto.news","slug":"crypto_news_news","icon":"https://s3.eu-west-1.amazonaws.com/production-alphaday.com/media/icons/sources/crypto-news.png"},"is_bookmarked":false,"sentiment_score":"0.50"},{"id":90499,"hash":"56a2b706ffdfdb8a6bcc8d55c63f92bf","title":"AI tokens surge as Memeinator (MMTR) token sale accelerates","url":"https://coinjournal.net/news/ai-tokens-surge-as-memeinator-mmtr-token-sale-accelerates/","image":"https://coinjournal.net/wp-content/uploads/2022/09/apple-touch-icon.png","author":null,"published_at":"2024-02-18T18:12:00Z","source":{"name":"Coin Journal","slug":"coinjournal_news","icon":"https://s3.eu-west-1.amazonaws.com/production-alphaday.com/media/icons/sources/coinjournal_news.png"},"is_bookmarked":false,"sentiment_score":"0.32"},{"id":90500,"hash":"224fdd80c8aeb51b22609bdbac1c94fd","title":"Bitcoin Brunch Miami","url":"https://cryptoevents.global/bitcoin-brunch-miami-2024-03-17/?utm_source=rss&utm_medium=rss&utm_campaign=bitcoin-brunch-miami-2024-03-17","image":"https://cryptoevents.global/wp-content/uploads/2019/08/cropped-Bitcoin-Crypto-Transparent-PNG-32x32.png","author":null,"published_at":"2024-02-18T18:09:00Z","source":{"name":"CryptoEvents","slug":"cryptoevents_news","icon":"https://s3.eu-west-1.amazonaws.com/production-alphaday.com/media/icons/sources/Cryptoevents.jpg"},"is_bookmarked":false,"sentiment_score":"0.43"},{"id":90498,"hash":"7ba76f53616bb46beb48f42a01ae88f9","title":"Detective accused of Bitcoin theft from Trezor hardware wallet","url":"https://crypto.news/australia-federal-police-officer-accused-bitcoin-theft/","image":"https://crypto.news/app/uploads/2024/02/crypto-news-Bitcoin-ETF-option12.webp","author":null,"published_at":"2024-02-18T18:06:00Z","source":{"name":"Crypto.news","slug":"crypto_news_news","icon":"https://s3.eu-west-1.amazonaws.com/production-alphaday.com/media/icons/sources/crypto-news.png"},"is_bookmarked":false,"sentiment_score":"0.07"},{"id":90496,"hash":"0071871557e14e89ca9eaf750b001205","title":"Solana Hits $115, Potential for 10% More Growth Explored; Spotlight on Emerging Memecoin","url":"https://coinjournal.net/news/solana-hits-115-potential-for-10-more-growth-explored-spotlight-on-emerging-memecoin/","image":"https://coinjournal.net/wp-content/uploads/2022/09/apple-touch-icon.png","author":null,"published_at":"2024-02-18T18:00:00Z","source":{"name":"Coin Journal","slug":"coinjournal_news","icon":"https://s3.eu-west-1.amazonaws.com/production-alphaday.com/media/icons/sources/coinjournal_news.png"},"is_bookmarked":false,"sentiment_score":"0.18"},{"id":90497,"hash":"94609c73e41a1ba5f323e0debde53545","title":"Cardano, Meme Moguls, and BNB price predictions for 2024","url":"https://crypto.news/cardano-meme-moguls-and-bnb-price-predictions-for-2024/","image":"https://crypto.news/app/uploads/2024/02/crypto-news-BlockDAG-launching-2m-giveaway-as-Meme-Kombat-hits-0.279-in-presale02.webp","author":null,"published_at":"2024-02-18T18:00:00Z","source":{"name":"Crypto.news","slug":"crypto_news_news","icon":"https://s3.eu-west-1.amazonaws.com/production-alphaday.com/media/icons/sources/crypto-news.png"},"is_bookmarked":false,"sentiment_score":"0.18"},{"id":90494,"hash":"2d3cd82e5ac82fd473894b86ddccb917","title":"Angel Drainer Strikes Again: $400,000 Stolen from 128 Crypto Wallets with New Attack Vector","url":"https://cryptopotato.com/angel-drainer-strikes-again-400000-stolen-from-128-crypto-wallets-with-new-attack-vector/","image":"https://cryptopotato.com/wp-content/uploads/2022/10/Hack.jpg","author":null,"published_at":"2024-02-18T17:46:00Z","source":{"name":"CryptoPotato","slug":"cryptopotato_news","icon":"https://s3.eu-west-1.amazonaws.com/production-alphaday.com/media/icons/sources/cryptopotato_news.png"},"is_bookmarked":false,"sentiment_score":"0.12"},{"id":90495,"hash":"675c3e3045e7a8989a7924867107f07a","title":"Binance under fire: prosecutors eye 5-year oversight","url":"https://crypto.news/binance-under-fire-prosecutors-eye-5-year-oversight/","image":"https://crypto.news/app/uploads/2023/11/crypto-news-broken-Binance-logo04.webp","author":null,"published_at":"2024-02-18T17:41:00Z","source":{"name":"Crypto.news","slug":"crypto_news_news","icon":"https://s3.eu-west-1.amazonaws.com/production-alphaday.com/media/icons/sources/crypto-news.png"},"is_bookmarked":false,"sentiment_score":"0.00"},{"id":90493,"hash":"c4efcb6db8dd9ea040490f2742d93a1f","title":"Trader Peter Brandt blasts SEC boss Gensler for ‘not looking out for investors’","url":"https://crypto.news/trader-peter-brandt-sec-boss-gensler-crypto-investors/","image":"https://crypto.news/app/uploads/2023/11/crypto-news-The-US-Securities-and-Exchange-Commission-SEC04.webp","author":null,"published_at":"2024-02-18T17:29:00Z","source":{"name":"Crypto.news","slug":"crypto_news_news","icon":"https://s3.eu-west-1.amazonaws.com/production-alphaday.com/media/icons/sources/crypto-news.png"},"is_bookmarked":false,"sentiment_score":"-0.05"},{"id":90492,"hash":"0cfa17c44b05660b7e5195dd47a5f8f7","title":"Honduras regulator bans institutions from trading crypto","url":"https://coinjournal.net/news/honduras-regulator-bans-institutions-from-trading-crypto/","image":"https://coinjournal.net/wp-content/uploads/2022/09/apple-touch-icon.png","author":null,"published_at":"2024-02-18T17:13:00Z","source":{"name":"Coin Journal","slug":"coinjournal_news","icon":"https://s3.eu-west-1.amazonaws.com/production-alphaday.com/media/icons/sources/coinjournal_news.png"},"is_bookmarked":false,"sentiment_score":"0.25"},{"id":90509,"hash":"6c5dfced304ad826c5e9f2db18f62f3d","title":"The Noonification: Nintendo Breaks Its Silence On Palworld (2/18/2024)","url":"https://hackernoon.com/2-18-2024-noonification?source=rss","image":"https://hackernoon.com/hn-icon.png","author":null,"published_at":"2024-02-18T17:03:00Z","source":{"name":"Hackernoon","slug":"hackernoon_news","icon":"https://s3.eu-west-1.amazonaws.com/production-alphaday.com/media/icons/sources/hackernoon_jrroxXJ.jpg"},"is_bookmarked":false,"sentiment_score":"0.24"}]}